{
    "cli": {
      "version": ">= 2.2.1"
    },
    "build": {
      "development": {
        "developmentClient": true,
        "distribution": "internal"
      },
      "preview": {
        "distribution": "internal"
      },
      "production": {}
    },
    "submit": {
      "production": {}
    }
  }
  